<?xml version="1.0" encoding="utf-8"?>
<!-- Generator: Adobe Illustrator 22.1.0, SVG Export Plug-In . SVG Version: 6.00 Build 0)  -->
<svg version="1.1" id="_x30_" xmlns="http://www.w3.org/2000/svg" xmlns:xlink="http://www.w3.org/1999/xlink" x="0px" y="0px"
	 viewBox="0 0 283.5 260.5" style="enable-background:new 0 0 283.5 260.5;" xml:space="preserve">
<style type="text/css">
	.st0{fill:#CA2329;}
</style>
<path id="_x31_" d="M49.6,199.2c0,5.4-1.1,10.3-3.4,14.6c-2.3,4.3-5.1,7.6-8.6,9.9c-2.9,2-6,3.2-9.4,3.8c-3.4,0.6-7,0.8-10.8,0.8H0
	v-58.5h17.2c3.9,0,7.6,0.3,11,0.8c3.4,0.5,6.6,1.8,9.6,3.8c3.7,2.5,6.5,5.8,8.7,10C48.6,188.7,49.6,193.6,49.6,199.2z M35.3,199.1
	c0-3.9-0.6-7.1-1.9-9.9c-1.3-2.7-3.2-4.9-5.8-6.4c-1.9-1.1-3.9-1.7-6-1.8c-2.1-0.1-4.6-0.2-7.4-0.2H14v36.6h0.3
	c3.1,0,5.8-0.1,7.9-0.2c2.2-0.1,4.2-0.8,6.1-2.1c2.3-1.5,4-3.6,5.2-6.3S35.3,203,35.3,199.1z M75.8,229.6c-7.9,0-14-2-18.2-6
	c-4.2-4-6.3-9.6-6.3-17c0-7.2,2-12.9,5.9-17.2c3.9-4.3,9.4-6.4,16.5-6.4c6.4,0,11.2,1.8,14.5,5.5c3.2,3.6,4.9,8.9,4.9,15.6v4.9H64.4
	c0.1,2,0.5,3.8,1.2,5.1c0.7,1.4,1.6,2.5,2.8,3.3c1.1,0.8,2.4,1.4,3.9,1.7c1.5,0.4,3.1,0.5,4.9,0.5c1.5,0,3-0.2,4.5-0.5
	c1.5-0.4,2.8-0.8,4-1.4c1.1-0.5,2.1-1,3-1.6c0.9-0.6,1.6-1.1,2.2-1.5h1.4V226c-1.1,0.4-2,0.9-2.9,1.2c-0.9,0.4-2.1,0.8-3.6,1.2
	c-1.4,0.4-2.9,0.7-4.4,0.9C79.8,229.5,78,229.6,75.8,229.6z M80.2,200.7c-0.1-2.9-0.7-5.1-1.9-6.6c-1.2-1.5-3.1-2.3-5.5-2.3
	c-2.5,0-4.5,0.8-6,2.4c-1.4,1.6-2.2,3.8-2.4,6.5H80.2z M119.6,229.6c-7.9,0-14-2-18.2-6c-4.2-4-6.3-9.6-6.3-17
	c0-7.2,2-12.9,5.9-17.2c3.9-4.3,9.4-6.4,16.5-6.4c6.4,0,11.2,1.8,14.5,5.5c3.2,3.6,4.9,8.9,4.9,15.6v4.9h-28.6
	c0.1,2,0.5,3.8,1.2,5.1c0.7,1.4,1.6,2.5,2.8,3.3c1.1,0.8,2.4,1.4,3.9,1.7c1.5,0.4,3.1,0.5,4.9,0.5c1.5,0,3-0.2,4.5-0.5
	c1.5-0.4,2.8-0.8,4-1.4c1.1-0.5,2.1-1,3-1.6c0.9-0.6,1.6-1.1,2.2-1.5h1.4V226c-1.1,0.4-2,0.9-2.9,1.2c-0.9,0.4-2.1,0.8-3.6,1.2
	c-1.4,0.4-2.9,0.7-4.4,0.9C123.6,229.5,121.8,229.6,119.6,229.6z M123.9,200.7c-0.1-2.9-0.7-5.1-1.9-6.6c-1.2-1.5-3.1-2.3-5.5-2.3
	c-2.5,0-4.5,0.8-6,2.4c-1.4,1.6-2.2,3.8-2.4,6.5H123.9z M202.1,184.3l-12.2,44.1h-13.9l-7.4-28.5l-7.4,28.5h-13.9l-12.1-44.1h13.7
	l6.4,29.2l7.9-29.2h11.5l7.5,29.2l6.3-29.2H202.1z M226.4,223.8c-0.9,0.8-1.7,1.5-2.4,2.1c-0.7,0.6-1.7,1.3-2.9,1.9
	c-1.2,0.6-2.3,1.1-3.4,1.4c-1.1,0.3-2.7,0.5-4.6,0.5c-3.7,0-6.8-1.3-9.2-3.9c-2.4-2.6-3.7-5.9-3.7-9.9c0-3.3,0.6-5.9,1.9-7.9
	c1.2-2,3-3.6,5.4-4.8c2.4-1.2,5.2-2,8.5-2.5c3.3-0.5,6.8-0.8,10.6-1.1v-0.2c0-2.4-0.9-4.1-2.6-5c-1.7-0.9-4.3-1.4-7.7-1.4
	c-1.5,0-3.3,0.3-5.4,0.9s-4.1,1.3-6,2.3h-1.1v-10.6c1.3-0.4,3.4-0.9,6.3-1.4c2.9-0.5,5.8-0.8,8.7-0.8c7.2,0,12.5,1.3,15.8,3.8
	c3.3,2.5,4.9,6.4,4.9,11.6v30h-13V223.8z M226.4,216.9v-9.2c-2.2,0.2-4,0.4-5.4,0.6c-1.4,0.2-2.7,0.5-4,1c-1.1,0.4-2,1.1-2.7,1.9
	c-0.6,0.9-1,2-1,3.4c0,2.1,0.5,3.5,1.6,4.3c1.1,0.8,2.6,1.2,4.7,1.2c1.1,0,2.3-0.3,3.5-0.8C224.3,218.7,225.4,217.9,226.4,216.9z
	 M282,228.4h-13.1v-21.9c0-1.8-0.1-3.6-0.2-5.3c-0.1-1.8-0.4-3.1-0.8-3.9c-0.4-1-1.1-1.7-1.9-2.1c-0.8-0.4-2-0.6-3.4-0.6
	c-1.1,0-2.2,0.2-3.2,0.6c-1.1,0.4-2.3,1.1-3.5,2v31.3h-13.1v-44.1h13.1v4.9c2.1-1.9,4.2-3.4,6.3-4.5c2-1.1,4.3-1.6,6.7-1.6
	c4.3,0,7.6,1.4,9.8,4.3c2.3,2.8,3.4,7,3.4,12.4V228.4z M103.4,255.4v-18.3h11.7v3.5h-7.4v3.2h6.8v3.5h-6.8v4.6h7.4v3.5H103.4z
	 M129.7,260.5h-4.1v-6.4c-0.3,0.2-0.6,0.5-0.9,0.7c-0.3,0.2-0.6,0.4-0.9,0.5c-0.3,0.2-0.7,0.3-1,0.4c-0.3,0.1-0.7,0.1-1.2,0.1
	c-1.5,0-2.7-0.7-3.5-2s-1.3-3-1.3-5.2c0-1.2,0.1-2.2,0.4-3.1c0.3-0.9,0.7-1.7,1.2-2.3c0.5-0.6,1-1.1,1.7-1.4
	c0.7-0.3,1.4-0.5,2.1-0.5c0.6,0,1.2,0.1,1.7,0.3c0.5,0.2,1,0.4,1.5,0.7l0.2-0.6h4V260.5z M125.6,251.6v-6.8
	c-0.2-0.1-0.5-0.2-0.8-0.3c-0.3-0.1-0.6-0.1-0.8-0.1c-1,0-1.7,0.4-2.2,1.1s-0.7,1.7-0.7,3c0,1.4,0.2,2.3,0.6,2.9
	c0.4,0.6,1,0.9,1.9,0.9c0.4,0,0.7-0.1,1.1-0.2C125,252,125.3,251.8,125.6,251.6z M144.8,255.4h-4.1v-1.5c-0.7,0.6-1.4,1.1-1.9,1.4
	c-0.6,0.3-1.3,0.5-2.1,0.5c-1.3,0-2.3-0.4-3-1.3c-0.7-0.9-1.1-2.2-1.1-3.9v-9h4.1v6.8c0,0.7,0,1.3,0.1,1.7c0,0.5,0.1,0.8,0.3,1.1
	c0.1,0.3,0.3,0.5,0.6,0.7c0.3,0.1,0.6,0.2,1.1,0.2c0.3,0,0.6-0.1,1-0.2c0.4-0.1,0.8-0.3,1.1-0.6v-9.8h4.1V255.4z M151.9,239.7h-4.3
	v-3.4h4.3V239.7z M151.8,255.4h-4.1v-13.8h4.1V255.4z M167.5,248.3c0,2.2-0.5,4-1.6,5.3c-1.1,1.4-2.4,2-3.9,2
	c-0.7,0-1.2-0.1-1.7-0.2s-1-0.4-1.5-0.7v5.7h-4.1v-18.8h4.1v1.4c0.6-0.5,1.2-1,1.8-1.3s1.3-0.5,2.2-0.5c1.5,0,2.7,0.6,3.5,1.9
	C167.1,244.4,167.5,246.1,167.5,248.3z M163.4,248.4c0-1.3-0.2-2.3-0.6-2.9c-0.4-0.6-1-0.9-1.8-0.9c-0.4,0-0.7,0.1-1.1,0.2
	c-0.4,0.1-0.7,0.3-1.1,0.6v6.9c0.2,0.1,0.5,0.2,0.7,0.2c0.3,0,0.6,0.1,0.9,0.1c1,0,1.7-0.3,2.2-1
	C163.1,250.8,163.4,249.8,163.4,248.4z M185.4,255.4v-6.9c0-0.7,0-1.3,0-1.7c0-0.5-0.1-0.8-0.2-1.1c-0.1-0.3-0.3-0.5-0.5-0.6
	c-0.2-0.1-0.6-0.2-1-0.2c-0.3,0-0.6,0.1-0.9,0.2c-0.3,0.1-0.6,0.3-1,0.6v9.8h-4.1v-6.9c0-0.7,0-1.2,0-1.7c0-0.5-0.1-0.9-0.2-1.1
	c-0.1-0.3-0.3-0.5-0.5-0.6c-0.2-0.1-0.6-0.2-1-0.2c-0.3,0-0.7,0.1-1,0.2c-0.3,0.2-0.6,0.4-0.9,0.6v9.8h-4.1v-13.8h4.1v1.5
	c0.7-0.6,1.3-1.1,1.9-1.4c0.6-0.3,1.3-0.5,2-0.5c0.8,0,1.5,0.2,2.1,0.6c0.6,0.4,1.1,1,1.4,1.8c0.8-0.8,1.5-1.4,2.2-1.8
	c0.7-0.4,1.4-0.6,2.1-0.6c0.6,0,1.2,0.1,1.6,0.3c0.5,0.2,0.9,0.5,1.2,0.9c0.4,0.4,0.6,1,0.8,1.6c0.2,0.6,0.3,1.4,0.3,2.4v9H185.4z
	 M199.1,255.8c-2.5,0-4.4-0.6-5.7-1.9c-1.3-1.2-2-3-2-5.3c0-2.3,0.6-4,1.8-5.4s2.9-2,5.2-2c2,0,3.5,0.6,4.5,1.7s1.5,2.8,1.5,4.9v1.5
	h-8.9c0,0.6,0.2,1.2,0.4,1.6c0.2,0.4,0.5,0.8,0.9,1c0.3,0.3,0.8,0.4,1.2,0.5c0.5,0.1,1,0.2,1.5,0.2c0.5,0,0.9-0.1,1.4-0.2
	c0.5-0.1,0.9-0.3,1.3-0.4c0.3-0.2,0.6-0.3,0.9-0.5s0.5-0.3,0.7-0.5h0.4v3.5c-0.3,0.1-0.6,0.3-0.9,0.4s-0.7,0.2-1.1,0.4
	c-0.4,0.1-0.9,0.2-1.4,0.3C200.4,255.7,199.8,255.8,199.1,255.8z M200.5,246.7c0-0.9-0.2-1.6-0.6-2.1c-0.4-0.5-1-0.7-1.7-0.7
	c-0.8,0-1.4,0.2-1.9,0.7c-0.4,0.5-0.7,1.2-0.7,2H200.5z M218.7,255.4h-4.1v-6.8c0-0.6,0-1.1-0.1-1.7c0-0.6-0.1-1-0.2-1.2
	c-0.1-0.3-0.3-0.5-0.6-0.7c-0.3-0.1-0.6-0.2-1.1-0.2c-0.3,0-0.7,0.1-1,0.2c-0.3,0.1-0.7,0.3-1.1,0.6v9.8h-4.1v-13.8h4.1v1.5
	c0.7-0.6,1.3-1.1,2-1.4c0.6-0.3,1.3-0.5,2.1-0.5c1.3,0,2.4,0.4,3.1,1.3c0.7,0.9,1.1,2.2,1.1,3.9V255.4z M226.2,255.7
	c-1.7,0-2.9-0.4-3.6-1.1c-0.8-0.7-1.1-1.9-1.1-3.5v-6.4h-1.6v-3h1.6v-3.9h4.1v3.9h3.9v3h-3.9v4.9c0,0.5,0,0.9,0,1.3
	c0,0.4,0.1,0.7,0.2,1c0.1,0.3,0.3,0.5,0.6,0.7c0.3,0.2,0.7,0.3,1.2,0.3c0.2,0,0.5,0,0.9-0.1s0.6-0.2,0.7-0.3h0.3v3
	c-0.4,0.1-0.9,0.2-1.4,0.3C227.5,255.6,226.9,255.7,226.2,255.7z M241.7,255.4v-14.8h-5.1v-3.5h14.6v3.5H246v14.8H241.7z
	 M260.6,245.7h-0.3c-0.2-0.1-0.4-0.1-0.7-0.1s-0.6,0-1,0c-0.4,0-0.9,0.1-1.3,0.2c-0.5,0.1-0.9,0.3-1.4,0.5v9.2h-4.1v-13.8h4.1v2
	c0.2-0.2,0.4-0.4,0.8-0.7c0.3-0.3,0.6-0.5,0.9-0.7c0.3-0.2,0.6-0.3,1-0.5c0.4-0.1,0.8-0.2,1.1-0.2c0.1,0,0.3,0,0.4,0
	c0.2,0,0.3,0,0.4,0V245.7z M274.3,255.4h-4.1V254c-0.3,0.2-0.6,0.5-0.9,0.7c-0.3,0.3-0.6,0.5-0.9,0.6c-0.3,0.2-0.6,0.3-1,0.4
	s-0.7,0.1-1.1,0.1c-1.5,0-2.7-0.7-3.5-2c-0.9-1.3-1.3-3-1.3-5.2c0-1.2,0.1-2.2,0.4-3.1c0.3-0.9,0.7-1.7,1.2-2.3
	c0.5-0.6,1-1.1,1.7-1.4c0.7-0.3,1.4-0.5,2.1-0.5c0.7,0,1.2,0.1,1.7,0.2c0.4,0.2,1,0.4,1.5,0.7v-5.9h4.1V255.4z M270.2,251.6v-6.8
	c-0.2-0.1-0.5-0.2-0.8-0.3s-0.6-0.1-0.8-0.1c-1,0-1.7,0.4-2.2,1.1c-0.5,0.7-0.7,1.7-0.7,3c0,1.4,0.2,2.3,0.6,2.9
	c0.4,0.6,1,0.9,1.9,0.9c0.4,0,0.7-0.1,1.1-0.2C269.6,252,269.9,251.8,270.2,251.6z M281.5,255.4h-4.1v-4.8h4.1V255.4z"/>
<path id="_x32_" class="st0" d="M244.5,132.3c5.6,0,11.2,0,16.8,0c1.8,0,1.9,0.1,1.9,1.8c0,8,0,16,0,24c0,2.3-0.1,2.3-2.4,2.4
	c-4.4,0.2-8.8,0.6-13.2,0.7c-4.6,0-9.1-0.2-13.7-0.4c-2.2-0.1-4.4-0.3-6.6-0.3c-1.1,0-1.6-0.4-1.6-1.5c0-6.9,0-13.8,0-20.7
	c0-1.4,0-2.8,0-4.3c0-1.6,0.2-1.7,1.8-1.7C233.2,132.3,238.8,132.3,244.5,132.3C244.5,132.3,244.5,132.3,244.5,132.3z M283.5,146.6
	c0-4.1,0-8.1,0-12.2c0-1.9-0.1-2-2.1-2c-4.4,0-8.8,0-13.2-0.1c-3.3,0-3.4,0.1-3.4,3.4c0.1,7.1,0.1,14.2,0.2,21.3
	c0,0.8-0.1,1.6,0.1,2.4c0.1,0.4,0.4,0.9,0.7,1c1,0.3,2,0.5,3,0.6c3.4,0.3,6.7,0.8,10.1-0.1c1.2-0.3,2.4-0.4,3.6-0.6
	c0.7-0.1,0.9-0.4,0.9-1.1C283.4,155,283.4,150.8,283.5,146.6C283.4,146.6,283.4,146.6,283.5,146.6z M205.7,146c0,3.7,0,7.4,0,11.1
	c0,0.7-0.1,1.4,0.1,2.1c0.1,0.4,0.5,0.9,0.8,1c1.3,0.3,2.7,0.6,4.1,0.8c4.1,0.6,8.2,0.2,12.2-0.5c0.8-0.1,1.1-0.5,1.1-1.3
	c-0.1-6-0.1-12-0.1-18c0-2.4,0-4.8,0.1-7.2c0-1.4-0.1-1.8-1.5-1.8c-5.2,0-10.3,0-15.5,0c-0.9,0-1.3,0.3-1.3,1.3
	C205.8,137.7,205.8,141.9,205.7,146C205.7,146,205.7,146,205.7,146z M219.9,112.9c-0.7,0-1.3,0-1.4,0.9c0,1.9-0.1,3.9,0,5.8
	c0,0.4,0.6,1,1.1,1.1c1.1,0.2,2.2,0.1,3.4,0.1c7.3,0,38.5-0.1,46.7-0.1c1,0,1.4-0.4,1.4-1.3c0-1.6,0-3.3,0-4.9c0-1-0.4-1.4-1.5-1.4
	C261.4,113.1,228.3,112.9,219.9,112.9z M269.9,111.2c0.6,0,1.2,0,1.2-0.9c0-1.7,0-3.3,0.1-5c0-1.1-0.4-1.5-1.5-1.5
	c-7.8,0-40.8,0-49.5,0c-1.2,0-1.7,0.4-1.6,1.6c0.1,1.5,0,2.9,0,4.4c0,1,0.3,1.5,1.5,1.5C228.2,111.3,266,111.2,269.9,111.2z
	 M269.6,129.3c1.1,0,1.6-0.5,1.5-1.7c-0.1-1,0-1.9,0-2.9c-0.1-2.1-0.1-2.1-2.1-2.1c-7.4-0.1-40.1-0.2-49.1-0.2c-1,0-1.3,0.5-1.4,1.4
	c0,1.3,0,2.5-0.1,3.8c0,1.4,0.2,1.7,1.7,1.7C228.3,129.4,267.9,129.4,269.6,129.3z M209.2,162.8c-0.1,0.1-0.1,0.1-0.1,0.2
	c0,0.1,0.1,0.2,0.2,0.2c0.1,0.1,0.2,0.2,0.3,0.3c0.9,0.8,1.8,1.7,2.8,2.5c0.7,0.5,1.7,0.9,2.5,0.9c2.6,0.1,5.2-0.1,7.8-0.1
	c8.9,0,17.8,0,26.8,0c8.2,0,16.4-0.1,24.6,0c1,0,1.9-0.2,2.7-0.8c0.2-0.1,0.3-0.3,0.5-0.4c0.8-0.6,1.6-1.2,2.3-1.9
	c0.2-0.2,0.4-0.4,0.6-0.6c0,0,0.1-0.1,0.1-0.1c0,0,0-0.1-0.1-0.1c-0.2-0.2-0.5-0.2-0.7-0.2c-0.5,0-1,0-1.4,0c-0.6,0-1.3,0-1.9,0
	c-0.7,0-1.5,0-2.2,0c-0.7,0-1.5,0-2.2,0c-0.6,0-1.3,0-1.9,0c-0.5,0-0.9-0.1-1.4-0.1c-1.9-0.2-3.8-0.7-5.7-0.7c-3,0-5.9,0.4-8.9,0.7
	c-8.9,0.9-17.8-0.1-26.7-0.5c-1.9-0.1-4,0-5.9,0.3c-1.3,0.2-2.6,0.4-3.9,0.5c-1.3,0.1-2.7,0.1-4,0c-0.7,0-1.4-0.1-2.1-0.2
	c-0.5,0-1.1-0.1-1.6-0.1C209.6,162.7,209.4,162.7,209.2,162.8C209.2,162.8,209.2,162.8,209.2,162.8z M177,72.4
	c-1-8.7-3.4-17.3-7.2-25.5c-2.3-4.9-4.9-9.6-8.2-14c-13-17.4-33.1-30.4-55.1-32.6C103.8,0.1,101,0,98.3,0C87.1,0,0.5,0,0.5,0
	l0,111.3l52.2,0c0,0,0-55.5,0-55.7c0-1.2,31.2-0.5,34.8,0.1c1.2,0.2,2.5,0.4,3.7,0.7c5.2,1.4,10.1,4.3,13.8,8.3
	c1.4,1.5,2.6,3.2,3.6,5c4.9,8.7,4.7,20.1-0.6,28.6c-6.1,9.8-16.4,13.2-27.4,13c-9-0.2-17.9,0-26.9,0c-0.3,0-0.6,0-0.9,0l0,55.5
	c8.5,0,17.1,0,25.6,0c12.9,0,25.4,0.7,38.2-2.3c8.1-1.9,15.4-4.7,22.4-9.1c6.8-4.3,12.9-9.5,18.2-15.6
	C173.1,121.6,179.8,96.3,177,72.4z M271.1,0c0,0-42.9-0.1-50.8,0c-0.8,0-1.9,0.3-2.5,0.8c-1.8,1.6-3.5,3.4-5.1,5.2
	c-10.2,10.8-20.4,21.6-30.6,32.4c-0.6,0.6-0.6,1.1,0,1.7c6.3,6.6,12.5,13.3,18.8,19.9c0.5,0.6,1,0.6,1.5,0.1c0.7-0.6,1.3-1.3,1.9-2
	c3.1-3.3,6.2-6.7,9.3-10c1.4-1.6,2.8-3.1,4.6-4.3c0.3,0.8,0.5,1.8,0.5,2.7c0,7.1-0.1,14.3-0.1,21.4c0,7.3,0,14.5,0,21.8
	c0,3.3,0,6.6,0,9.9c0,2.4,0,2.4,2.4,2.5c0.3,0,0.7,0,1,0c13.5,0,27,0,40.5,0c2.5,0,5-0.1,7.5-0.1c0.8,0,1.1-0.3,1-1.1
	c0-2.9,0-5.8,0-8.6c0-13.9,0-27.7,0-41.6c0,0,0.1,0,0.1,0C271.1,36.1,271.1,0,271.1,0z"/>
</svg>
