<?xml version="1.0" encoding="utf-8"?>
<!-- Generator: Adobe Illustrator 22.1.0, SVG Export Plug-In . SVG Version: 6.00 Build 0)  -->
<svg version="1.1" id="Слой_1" xmlns="http://www.w3.org/2000/svg" xmlns:xlink="http://www.w3.org/1999/xlink" x="0px" y="0px"
	 viewBox="0 0 256 160" style="enable-background:new 0 0 256 160;" xml:space="preserve">
<style type="text/css">
	.st0{fill-rule:evenodd;clip-rule:evenodd;fill:#CB353A;}
</style>
<path id="B" class="st0" d="M128,128.6l-14.3-6.6l-1.7,6.6H81.5l-9.2-20.7l-9.2,20.7H46.6l-9.1-20.8l-9.2,20.8H11.8l17.4-39.5h16.4
	l9.3,20.9l9.1-20.9h16.5l10.7,24.3h9L128,4l27.7,109.4H212l-10-4.6l6.3-4.4l-39.5-0.2l6.7-15.2h51.3l6.7,15.2l-6.2,4.5l10.2,4.6
	l6.7,15.2H144l-1.7-6.6L128,128.6z M128,111.9l-10.6-4.8L128,65.4l10.6,41.8L128,111.9z M128,140.8L5.8,130.9l20.4-46.3h81.3
	l1.2-4.6H23.3L0,133.2L128,156l128-22.8L232.7,80h-85.4l1.2,4.6h81.3l20.5,46.3L128,140.8z"/>
</svg>
