<?xml version="1.0" encoding="utf-8"?>
<!-- Generator: Adobe Illustrator 22.1.0, SVG Export Plug-In . SVG Version: 6.00 Build 0)  -->
<svg version="1.1" id="_x30_" xmlns="http://www.w3.org/2000/svg" xmlns:xlink="http://www.w3.org/1999/xlink" x="0px" y="0px"
	 viewBox="0 0 283.5 157.7" style="enable-background:new 0 0 283.5 157.7;" xml:space="preserve">
<style type="text/css">
	.st0{fill-rule:evenodd;clip-rule:evenodd;fill:#9AA9B8;}
	.st1{fill:#9AA9B8;}
</style>
<path id="_x31__1_" class="st0" d="M194.2,61.2c0,29-23.5,52.4-52.4,52.4S89.3,90.2,89.3,61.2s23.5-52.4,52.4-52.4
	S194.2,32.2,194.2,61.2z M141.7,0c-33.8,0-61.2,27.4-61.2,61.2s27.4,61.2,61.2,61.2s61.2-27.4,61.2-61.2S175.5,0,141.7,0z"/>
<polygon id="_x32_" class="st0" points="63.9,61.2 124.3,41.5 141.7,58.9 159.1,41.5 219.6,61.2 215.8,66.1 162.7,63.6 141.7,81 
	120.7,63.6 67.7,66.1 "/>
<path id="_x33_" class="st1" d="M2.4,144.6h1.5l2.9,6.8l3-6.8h1.5l1.8,10.7h-2.1l-1-6.6l-2.9,6.6H6.4l-2.8-6.6l-1.1,6.6H0.4
	L2.4,144.6z M17,144.6v7.1l5.9-7.1h1.5v10.7h-2.1v-7.2l-5.9,7.2h-1.5v-10.7H17z M29,148.7h4.5v-4.2h2.1v10.7h-2.1v-4.8H29v4.8h-2.1
	v-10.7H29V148.7z M45.8,154.9c-0.6,0.3-1.5,0.6-2.7,0.6c-1.9,0-3-0.6-3.9-1.5c-1.2-1.2-1.7-2.5-1.7-4.1c0-1.9,0.8-3.3,1.7-4.2
	c1.1-1,2.4-1.4,3.9-1.4c0.8,0,1.7,0.1,2.6,0.7v2.4c-1-1.1-2.2-1.2-2.6-1.2c-2.2,0-3.6,1.8-3.6,3.8c0,2.4,1.8,3.7,3.6,3.7
	c1,0,1.9-0.4,2.5-1.2V154.9z M49.9,149.1l3.9-4.5h2.6l-4.5,5l4.8,5.8h-2.8l-3.8-4.8l-0.2,0.2v4.6h-2.1v-10.7h2.1V149.1z M60.1,144.6
	v7.1l5.9-7.1h1.5v10.7h-2.1v-7.2l-5.9,7.2H58v-10.7H60.1z M72,144.6v7.1l5.9-7.1h1.5v10.7h-2.1v-7.2l-5.9,7.2h-1.5v-10.7H72z
	 M73.2,141.2c0.3,0.9,1.2,0.9,1.4,0.9c0.2,0,1.1,0,1.4-0.9l1.4,0.6c-0.4,1.1-1.4,1.8-2.9,1.8s-2.5-0.7-2.9-1.8L73.2,141.2z
	 M91.9,153.1h-4.3l-0.9,2.3h-2.3l4.6-10.7h1.6l4.5,10.7h-2.3L91.9,153.1z M91.3,151.4l-1.5-3.9l-1.5,3.9H91.3z M99.1,144.6
	c0.6,0,1.8,0,2.6,0.7c0.6,0.5,1,1.3,1,2.2c0,1.4-0.9,1.9-1.2,2.1c0.7,0.1,1.1,0.4,1.4,0.7c0.6,0.6,0.8,1.5,0.8,2
	c0,0.6-0.2,1.5-0.9,2.2c-0.8,0.7-1.8,0.9-2.7,0.9h-3.6v-10.7H99.1z M98.5,149h0.6c0.3,0,1.6,0,1.6-1.4c0-1-0.8-1.4-1.6-1.4h-0.6V149
	z M98.5,153.6h0.9c0.4,0,1,0,1.4-0.3c0.5-0.3,0.7-0.8,0.7-1.2c0-0.3-0.1-0.9-0.8-1.2c-0.5-0.2-1-0.2-1.4-0.2h-0.8V153.6z
	 M108.3,146.4v8.9h-2.1v-8.9h-2.4v-1.8h6.9v1.8H108.3z M122.5,150c0,3.3-2.3,5.6-5.7,5.6c-3.4,0-5.7-2.3-5.7-5.6
	c0-3.3,2.4-5.6,5.7-5.6C120.1,144.3,122.5,146.7,122.5,150z M120.3,150c0-2.2-1.5-3.7-3.6-3.7c-2.1,0-3.6,1.5-3.6,3.7
	c0,2.2,1.5,3.7,3.6,3.7C118.9,153.7,120.3,152.1,120.3,150z M125.9,144.6h1.5l2.9,6.8l3-6.8h1.5l1.8,10.7h-2.1l-1-6.6l-2.9,6.6h-0.7
	l-2.8-6.6l-1.1,6.6h-2.1L125.9,144.6z M149.4,150c0,3.3-2.3,5.6-5.7,5.6c-3.4,0-5.7-2.3-5.7-5.6c0-3.3,2.4-5.6,5.7-5.6
	C147,144.3,149.4,146.7,149.4,150z M147.2,150c0-2.2-1.5-3.7-3.6-3.7c-2.1,0-3.6,1.5-3.6,3.7c0,2.2,1.5,3.7,3.6,3.7
	C145.7,153.7,147.2,152.1,147.2,150z M151.3,144.6h6.2v1.8h-4.1v2.5h1.4c0.8,0,1.9,0.1,2.7,0.9c0.6,0.5,1,1.4,1,2.4
	c0,0.7-0.2,1.4-0.6,1.9c-0.8,1.2-2.2,1.3-3.1,1.3h-3.6V144.6z M153.4,153.5h1c1.7,0,2-0.8,2-1.4c0-0.7-0.4-1.5-2-1.5h-1V153.5z
	 M162.6,144.6v7.1l5.9-7.1h1.5v10.7h-2.1v-7.2l-5.9,7.2h-1.5v-10.7H162.6z M180.7,144.6v10.7h-2.1v-8.9h-3.1v4.8
	c0,1.1,0,2.6-1.2,3.6c-0.4,0.4-1.1,0.7-2.1,0.7c-0.3,0-0.6,0-0.9-0.1v-1.8c0.2,0,0.4,0.1,0.6,0.1c0.5,0,0.8-0.2,1-0.4
	c0.5-0.5,0.5-1.5,0.5-2.5v-6.1H180.7z M183.2,144.6h2.1v4.2h1.7c0.8,0,1.8,0.1,2.6,0.9c0.6,0.5,1,1.4,1,2.4c0,0.7-0.2,1.4-0.6,1.9
	c-0.8,1.2-2.1,1.3-3,1.3h-3.8V144.6z M185.3,153.5h1.2c0.4,0,1.9,0,1.9-1.4c0-0.7-0.4-1.5-1.9-1.5h-1.3V153.5z M194.2,148.7h4.5
	v-4.2h2.1v10.7h-2.1v-4.8h-4.5v4.8h-2.1v-10.7h2.1V148.7z M203.3,144.6h2.1v4.2h1.7c0.8,0,1.8,0.1,2.6,0.9c0.6,0.5,1,1.4,1,2.4
	c0,0.7-0.2,1.4-0.6,1.9c-0.8,1.2-2.1,1.3-3,1.3h-3.8V144.6z M205.4,153.5h1.2c0.4,0,1.9,0,1.9-1.4c0-0.7-0.4-1.5-1.9-1.5h-1.3V153.5
	z M213.8,144.6v10.7h-2.1v-10.7H213.8z M218.3,144.6v7.1l5.9-7.1h1.5v10.7h-2.1v-7.2l-5.9,7.2h-1.5v-10.7H218.3z M219.5,141.2
	c0.3,0.9,1.2,0.9,1.4,0.9c0.2,0,1.1,0,1.4-0.9l1.4,0.6c-0.4,1.1-1.4,1.8-2.9,1.8c-1.5,0-2.5-0.7-2.9-1.8L219.5,141.2z M232.1,145.6
	c0.9-0.8,1.9-1.3,3.3-1.3c2.2,0,3.5,1.1,3.5,2.8c0,0.9-0.5,1.8-1.3,2.3c1.3,0.3,2,1.5,2,2.8c0,2-1.8,3.4-4.3,3.4c-1.9,0-3.3-0.8-4-2
	l1.4-1.3c0.5,1.1,1.7,1.6,2.7,1.6c1.4,0,2.1-0.8,2.1-1.6c0-1.5-1.5-1.6-2.3-1.6h-1v-1.8h1c1.1,0,1.8-0.5,1.8-1.4
	c0-0.8-0.5-1.2-1.5-1.2c-0.5,0-1.5,0.1-2.2,0.9L232.1,145.6z M247.5,153.1h-4.3l-0.9,2.3H240l4.6-10.7h1.6l4.5,10.7h-2.3
	L247.5,153.1z M246.9,151.4l-1.5-3.9l-1.5,3.9H246.9z M254.7,144.6c0.6,0,1.8,0,2.6,0.7c0.6,0.5,1,1.3,1,2.2c0,1.4-0.9,1.9-1.2,2.1
	c0.7,0.1,1.1,0.4,1.4,0.7c0.6,0.6,0.8,1.5,0.8,2c0,0.6-0.2,1.5-0.9,2.2c-0.8,0.7-1.8,0.9-2.7,0.9H252v-10.7H254.7z M254.1,149h0.6
	c0.3,0,1.6,0,1.6-1.4c0-1-0.8-1.4-1.6-1.4h-0.6V149z M254.1,153.6h0.9c0.4,0,1,0,1.4-0.3c0.5-0.3,0.7-0.8,0.7-1.2
	c0-0.3-0.1-0.9-0.8-1.2c-0.5-0.2-1-0.2-1.4-0.2h-0.8V153.6z M272.1,150c0,3.3-2.3,5.6-5.7,5.6c-3.4,0-5.7-2.3-5.7-5.6
	c0-3.3,2.4-5.6,5.7-5.6C269.8,144.3,272.1,146.7,272.1,150z M270,150c0-2.2-1.5-3.7-3.6-3.7c-2.1,0-3.6,1.5-3.6,3.7
	c0,2.2,1.5,3.7,3.6,3.7C268.5,153.7,270,152.1,270,150z M282.3,144.6v8.9h1.1v4.2h-1.9v-2.4h-6.6v2.4H273v-4.2
	c0.8,0,1.4-0.6,1.7-1.4c0.2-0.5,0.4-1.3,0.4-2.8v-4.7H282.3z M277.1,149.3c0,1.7-0.2,2.5-0.4,3c-0.2,0.6-0.5,1-0.8,1.3h4.3v-7.1
	h-3.1V149.3z"/>
</svg>
