<?xml version="1.0" encoding="utf-8"?>
<!-- Generator: Adobe Illustrator 22.1.0, SVG Export Plug-In . SVG Version: 6.00 Build 0)  -->
<svg version="1.1" id="_x30_" xmlns="http://www.w3.org/2000/svg" xmlns:xlink="http://www.w3.org/1999/xlink" x="0px" y="0px"
	 viewBox="0 0 283.5 87.5" style="enable-background:new 0 0 283.5 87.5;" xml:space="preserve">
<style type="text/css">
	.st0{fill-rule:evenodd;clip-rule:evenodd;fill:#00458E;}
</style>
<path id="_x31_" class="st0" d="M2.7,31c0.1,0,37,0,37,0c0.3-1.9,0.7-3.8,1.3-5.7C45.5,9.6,58.3,0.9,74.7,0
	c18.8-1,35.2,12.5,36.3,30.7c0,0-5.3,0-5.2,0c0.5-2.6-4.3-27-31.3-25.9C64,5.2,50.8,11.2,47.8,22.3c0,0,15.7-8.5,15.7-8.5
	c0,0,7.7,0,7.7,0L54,24.6c-0.2,0.1,0.6,1.4,1.2,3c0.3,1,2.1,9.8,2.1,9.8c0,0-5.8,0-5.8,0s-0.4-3.6-1.5-6.5c-1-2.7-3.2-4.9-3.3-4.9
	c-1.6,0.1-1.9,11.3-1.9,11.3H0L2.7,31z M90,50.5l5-27.7h-7.9c0,0-13.9,20.5-13.5,20.5c0.4,0-0.9-20.5-0.9-20.5H63l-7.2,27.7h6.3
	l5.4-21v21h7.3l13.4-21.9l-4.4,21.9L90,50.5z M117.4,45.6h28.7l-6.2,15.1h-28.9C114,56.2,116.2,51.1,117.4,45.6z M11,12.1h28.1
	c-3.1,4.5-5.3,9.6-6.5,15.1H4.8L11,12.1z M40.5,42.7c0.1,0,5.3-0.1,5.3-0.1c0,0.4,7,26,29.9,24.4c16.2-1.1,22.8-7.8,24.1-12.5
	c0.6-2.1,0.4-3.8,0.2-4.6c0-0.1-4.2-0.1-5-0.1c-0.2,0,1.4-4.6,1.4-4.6s7.3,0.6,7.5-2.2c0.2-2.9-1.7-3.3-3-3.4
	c-0.9-0.1-2.4,0.2-3.9,0.6c-1,0.3-1.9,0.6-1.9,0.6l2.2-5.4h53.1l-2.9,6.6h-38.7c-0.1,0,0,2-0.7,3.1c-0.6,1-1.1,1.9-2.5,2.4
	c0,0,0.2,0,0.4,0.7c2.5,8.9-5.2,16.6-14.5,20.7c-4.6,2.1-10.1,3.3-15.5,3.4c-3.5,0.1-7-0.5-10.1-1.1c-3.9-0.8-8.4-3.1-12.3-6.1
	C46.5,59.6,41.7,50,40.5,42.7z M163.1,35.8h3l-1.4,3.4h1.5l4.7-3.4h4.1l-6.7,4.6l3.3,5h-4.3l-2.2-3.7h-1.5l-1.5,3.7h-3L163.1,35.8z
	 M181.6,35.8h5.1l0.8,9.6H184l-0.3-1.6h-5.9l-1.6,1.6h-3.5L181.6,35.8z M183.4,38H183l-3,3.3h3.6L183.4,38z M193,35.8l-4,9.6h3
	l2.8-6.7c0-0.1,0.1-0.2,0.1-0.3c0.1-0.3,0.1-0.4,0.1-0.4c0-0.1,0.1-0.1,0.1-0.1c0,0,0.1,0,0.1,0.1c0,0.1,0,0.2,0,0.3l0.7,7.1h2.4
	l6.3-7.1c0.1-0.1,0.2-0.2,0.3-0.3c0.1-0.1,0.2-0.2,0.2-0.2c0.1,0,0.1,0,0,0.1c0,0-0.1,0.1-0.2,0.3c-0.1,0.2-0.2,0.3-0.2,0.4
	l-2.8,6.7h3l4-9.6h-5l-4.7,5.4c-0.2,0.3-0.4,0.6-0.5,0.8c-0.1,0.2-0.2,0.3-0.2,0.3c0,0,0-0.2,0.1-0.5c0.1-0.4,0.2-0.6,0.2-0.6
	l-0.3-5.4H193z M217.2,35.7c2.7,0,4.3,0.2,4.8,0.7c0.4,0.4,0.2,1.4-0.5,3.1h-3c0.2-0.6,0.2-0.9,0-1.1c-0.3-0.2-1.1-0.3-2.4-0.3
	c-1.4,0-2.3,0.1-2.7,0.3c-0.3,0.2-0.8,0.9-1.3,2.1c-0.5,1.2-0.7,1.9-0.5,2.1c0.2,0.2,1,0.3,2.4,0.3c1.3,0,2.2-0.1,2.5-0.2
	c0.4-0.2,0.7-0.5,0.9-1.1h3c-0.7,1.7-1.4,2.8-2.1,3.1c-0.8,0.5-2.6,0.7-5.4,0.7s-4.3-0.3-4.7-0.8c-0.4-0.5-0.1-1.9,0.9-4.2
	c0.9-2.3,1.8-3.7,2.5-4.1C212.6,35.9,214.4,35.7,217.2,35.7z M225.5,35.8h3l-1.4,3.4h1.5l4.7-3.4h4.1l-6.7,4.6l3.3,5h-4.3l-2.2-3.7
	H226l-1.5,3.7h-3L225.5,35.8z M240.1,35.8h3l-2.7,6.6c-0.2,0.3-0.4,0.5-0.5,0.7c-0.1,0.1-0.1,0.2-0.1,0.3c0.1,0,0.1-0.1,0.3-0.2
	c0.1-0.1,0.2-0.2,0.3-0.3l8-7.1h4.8l-4,9.6h-3l2.7-6.6c0,0,0.2-0.3,0.5-0.7c0-0.1,0.1-0.2,0.1-0.3c-0.1,0-0.1,0.1-0.3,0.2
	c-0.1,0.1-0.2,0.2-0.3,0.3l-8,7.1h-4.8L240.1,35.8z M256.1,35.8h3l-2.7,6.6c-0.2,0.3-0.4,0.5-0.5,0.7c-0.1,0.1-0.1,0.2-0.1,0.3
	c0.1,0,0.1-0.1,0.3-0.2c0.1-0.1,0.2-0.2,0.3-0.3l8-7.1h4.8l-4,9.6h-3l2.7-6.6c0,0,0.2-0.3,0.5-0.7c0-0.1,0.1-0.2,0.1-0.3
	c-0.1,0-0.1,0.1-0.3,0.2c-0.1,0.1-0.2,0.2-0.3,0.3l-8,7.1h-4.8L256.1,35.8z M165.1,80.6l-0.9,2.1h2.7c0.6,0,1,0,1.2,0.1
	c0.2,0.1,0.2,0.3,0.1,0.6c-0.1,0.3-0.3,0.5-0.6,0.6c-0.3,0.1-0.7,0.2-1.3,0.2c-2.1,0-3.3-0.1-3.6-0.2c-0.3-0.1-0.3-0.5,0-1.2h-3
	c-0.7,1.8-0.9,2.9-0.5,3.3c0.4,0.4,2,0.6,4.8,0.6c2.3,0,3.9-0.1,4.7-0.4c1-0.3,1.8-1.1,2.3-2.4c0.2-0.6,0.4-1,0.4-1.1
	c0.1-0.4-0.1-0.8-0.6-1.1c0.6-0.3,1.1-0.6,1.4-1c0.2-0.2,0.4-0.6,0.6-1.1c0.5-1.2,0.4-2-0.3-2.4c-0.6-0.3-2-0.4-4.4-0.4
	c-2.7,0-4.4,0.2-5.2,0.6c-0.8,0.4-1.5,1.5-2.3,3.2h3c0.3-0.7,0.6-1.1,1-1.2c0.4-0.1,1.6-0.2,3.7-0.2c0.6,0,1,0,1.2,0.1
	c0.2,0.1,0.2,0.3,0.1,0.6c-0.1,0.3-0.3,0.5-0.6,0.6c-0.3,0.1-0.7,0.1-1.3,0.1H165.1z M180.3,76.9h5.1l0.8,9.6h-3.5l-0.3-1.6h-5.9
	l-1.6,1.6h-3.5L180.3,76.9z M182.2,79h-0.5l-3,3.3h3.6L182.2,79z M192.2,82.6h5.1c0.3,0,0.5,0.1,0.6,0.2c0.1,0.1,0.1,0.3,0,0.6
	c-0.2,0.5-0.6,0.7-1.2,0.7h-5.1L192.2,82.6z M191.6,76.9l-4,9.6h8.9c1.1,0,1.9-0.2,2.5-0.6c0.6-0.4,1.1-1.1,1.5-2.1
	c0.5-1.1,0.3-1.9-0.4-2.3c0.3-0.1,0.7-0.4,1-0.7c0.3-0.3,0.6-0.8,0.8-1.3c0.5-1.1,0.5-1.9,0-2.3c-0.3-0.3-0.9-0.4-1.8-0.4H191.6z
	 M193.6,79.2h5.2c0.2,0,0.4,0,0.5,0.1c0.1,0.1,0.1,0.3,0,0.5c-0.1,0.2-0.2,0.4-0.4,0.5c-0.2,0.1-0.4,0.2-0.6,0.2H193L193.6,79.2z
	 M216.6,81.7c-1,2.3-1.8,3.7-2.6,4.2c-0.8,0.5-2.7,0.7-5.8,0.7c-2.2,0-3.7-0.1-4.3-0.2c-0.8-0.2-1.2-0.7-1.1-1.3
	c0-0.5,0.4-1.6,1.1-3.3c1-2.3,1.8-3.7,2.6-4.2c0.8-0.5,2.8-0.8,5.8-0.8c3.1,0,4.8,0.2,5.2,0.7C217.8,77.9,217.6,79.3,216.6,81.7z
	 M206.9,81.7c-0.5,1.2-0.7,1.9-0.5,2.1c0.2,0.2,1.1,0.3,2.8,0.3c1.7,0,2.7-0.1,3.1-0.3c0.4-0.2,0.8-0.9,1.3-2.1
	c0.5-1.2,0.7-2,0.5-2.2c-0.2-0.2-1.1-0.3-2.8-0.3c-1.7,0-2.7,0.1-3.1,0.3C207.8,79.7,207.4,80.4,206.9,81.7z M218.3,84
	c0.3,0,0.7-0.5,1.2-1.5s1.4-2.9,2.5-5.6h11.1l-2.9,7.1h0.7l-1.4,3.5h-3l0.2-0.4c0.1-0.2,0.1-0.4,0.1-0.5c-0.1-0.1-0.2-0.1-0.4-0.1
	h-6c-0.4,0-0.7,0.2-0.9,0.6l-0.2,0.4h-3l1.4-3.5H218.3z M227.2,84l1.9-4.6H224c-0.5,1.3-1,2.3-1.5,3.2c-0.5,0.8-0.8,1.3-1,1.5H227.2
	z M163.1,55.9l-4,9.6h3l2.8-6.7c0-0.1,0.1-0.2,0.1-0.3C165,58.1,165,58,165,58c0-0.1,0.1-0.1,0.1-0.1c0,0,0.1,0,0.1,0.1
	c0,0.1,0,0.2,0,0.3l0.7,7.1h2.4l6.3-7.1c0.1-0.1,0.2-0.2,0.3-0.3c0.1-0.1,0.2-0.2,0.2-0.2c0.1,0,0.1,0,0,0.1c0,0-0.1,0.1-0.2,0.3
	c-0.1,0.2-0.2,0.3-0.2,0.4l-2.8,6.7h3l4-9.6h-5l-4.7,5.4c-0.2,0.3-0.4,0.6-0.5,0.8c-0.1,0.2-0.2,0.3-0.2,0.3c0,0,0-0.2,0.1-0.5
	c0.1-0.4,0.2-0.6,0.2-0.6l-0.3-5.4H163.1z M192.3,60.7c-1,2.3-1.8,3.7-2.6,4.2c-0.8,0.5-2.7,0.7-5.8,0.7c-2.2,0-3.7-0.1-4.3-0.2
	c-0.8-0.2-1.2-0.7-1.1-1.3c0-0.5,0.4-1.6,1.1-3.3c1-2.3,1.8-3.7,2.6-4.2c0.8-0.5,2.8-0.8,5.8-0.8c3.1,0,4.8,0.2,5.2,0.7
	C193.5,56.9,193.2,58.3,192.3,60.7z M182.5,60.7c-0.5,1.2-0.7,1.9-0.5,2.1c0.2,0.2,1.1,0.3,2.8,0.3c1.7,0,2.7-0.1,3.1-0.3
	c0.4-0.2,0.8-0.9,1.3-2.1c0.5-1.2,0.7-2,0.5-2.2c-0.2-0.2-1.1-0.3-2.8-0.3c-1.7,0-2.7,0.1-3.1,0.3C183.5,58.7,183,59.4,182.5,60.7z
	 M195,58.3l1-2.5h11.4l-1,2.5h-4.2l-2.9,7.1h-3l2.9-7.1H195z M220.3,60.7c-1,2.3-1.8,3.7-2.6,4.2c-0.8,0.5-2.7,0.7-5.8,0.7
	c-2.2,0-3.7-0.1-4.3-0.2c-0.8-0.2-1.2-0.7-1.1-1.3c0-0.5,0.4-1.6,1.1-3.3c1-2.3,1.8-3.7,2.6-4.2c0.8-0.5,2.8-0.8,5.8-0.8
	c3.1,0,4.8,0.2,5.2,0.7C221.5,56.9,221.2,58.3,220.3,60.7z M210.5,60.7c-0.5,1.2-0.7,1.9-0.5,2.1c0.2,0.2,1.1,0.3,2.8,0.3
	c1.7,0,2.7-0.1,3.1-0.3c0.4-0.2,0.8-0.9,1.3-2.1c0.5-1.2,0.7-2,0.5-2.2c-0.2-0.2-1.1-0.3-2.8-0.3c-1.7,0-2.7,0.1-3.1,0.3
	C211.5,58.7,211,59.4,210.5,60.7z M224.5,55.8h7.2c1.6,0,2.5,0.2,2.9,0.6c0.4,0.5,0.3,1.5-0.3,3c-0.6,1.5-1.4,2.6-2.2,3
	c-0.7,0.4-1.8,0.6-3.4,0.6h-4.3l-1,2.4h-3L224.5,55.8z M225.5,60.6h4.3c0.3,0,0.6-0.1,0.9-0.2c0.3-0.2,0.5-0.5,0.7-0.9
	c0.2-0.4,0.2-0.7,0.1-0.9c-0.1-0.2-0.4-0.2-0.7-0.2h-4.3L225.5,60.6z M238,55.9h3l-1.4,3.4h6.4l1.4-3.4h3l-4,9.6h-3l1.5-3.7h-6.4
	l-1.5,3.7h-3L238,55.9z M265.5,55.8h3l-4,9.6h-3L265.5,55.8z M248.7,65.5l4-9.6h3l-1,2.4h4.3c1.6,0,2.5,0.2,2.9,0.6
	c0.4,0.5,0.3,1.5-0.3,3c-0.6,1.5-1.4,2.6-2.2,3c-0.7,0.4-1.8,0.6-3.4,0.6H248.7z M253.6,60.7l-0.9,2.3h4.3c0.4,0,0.7-0.1,0.9-0.2
	c0.3-0.2,0.5-0.5,0.7-0.9c0.2-0.4,0.2-0.7,0.1-0.9c-0.1-0.2-0.4-0.2-0.7-0.2H253.6z M270.5,55.8h3l-2.7,6.6
	c-0.2,0.3-0.4,0.5-0.5,0.7c-0.1,0.1-0.1,0.2-0.1,0.3c0.1,0,0.1-0.1,0.3-0.2c0.1-0.1,0.2-0.2,0.3-0.3l8-7.1h4.8l-4,9.6h-3l2.7-6.6
	c0,0,0.2-0.3,0.5-0.7c0-0.1,0.1-0.2,0.1-0.3c-0.1,0-0.1,0.1-0.3,0.2c-0.1,0.1-0.2,0.2-0.3,0.3l-8,7.1h-4.8L270.5,55.8z M280.4,54
	l-4.8,0l-0.5,1.3h4.8L280.4,54z M266.1,33.9l-4.8,0l-0.5,1.3h4.8L266.1,33.9z"/>
</svg>
